software_Demo – Enhancing Digital Humanities Research in R: Accessing Finnish Cultural Heritage Data with finna and finto
…
Finto AI for Subject Indexing

hierarchy <- get_hierarchy(vocid = "yso", uri = "http://www.yso.fi/onto/yso/p5729", lang = "en")
print(hierarchy)

# A tibble: 162 × 4
   uri                               broader               prefLabel hasChildren
   <chr>                             <chr>                 <chr>     <lgl>      
 1 http://www.yso.fi/onto/yso/p277   <NA>                  change    NA         
 2 http://www.yso.fi/onto/yso/p11052 http://www.yso.fi/on… change    FALSE      
 3 http://www.yso.fi/onto/yso/p25030 http://www.yso.fi/on… change    FALSE      
 4 http://www.yso.fi/onto/yso/p2954  http://www.yso.fi/on… change    FALSE      
 5 http://www.yso.fi/onto/yso/p22295 http://www.yso.fi/on… change    FALSE      
 6 http://www.yso.fi/onto/yso/p3786  http://www.yso.fi/on… change    FALSE      
 7 http://www.yso.fi/onto/yso/p7283  http://www.yso.fi/on… change    FALSE      
 8 http://www.yso.fi/onto/yso/p26968 http://www.yso.fi/on… change    FALSE      
 9 http://www.yso.fi/onto/yso/p8957  http://www.yso.fi/on… change    FALSE      
10 http://www.yso.fi/onto/yso/p11509 http://www.yso.fi/on… change    FALSE      
# ℹ 152 more rows
…
